<svg xmlns="http://www.w3.org/2000/svg" xmlns:xlink="http://www.w3.org/1999/xlink" xmlns:a="http://ns.adobe.com/AdobeSVGViewerExtensions/3.0/" x="0px" y="0px" viewBox="0 0 60.3 86.1" style="enable-background:new 0 0 60.3 86.1;" xml:space="preserve">
<style type="text/css">
	.st0{fill:#A4A4A4;}
</style>
<path class="st0" d="M9.3,78.3c-0.6-0.7-1.5-1.1-2-1.9c-0.5-0.4-1-0.9-1.4-1.5c0-0.4-0.3-0.7-0.5-0.9c-6.3-8.8-7.1-18-2.3-27.8 c2.4-4.8,5.5-9.2,8.4-13.7c2.5-4,4.8-8.1,5.9-12.6c1.1-4.5,0.9-8.8-1.8-12.7c-0.3-0.4-0.6-0.8-1.1-1.1c-0.9-1.2-1.9-2.1-3.1-2.9 c-0.3-0.2-0.8-0.4-0.8-0.9c-0.5-1.1,0.1-1.7,1.1-1.9c1.9-0.5,3.9-0.2,5.7,0.3C23,2.1,27.6,5,31.1,9.5c2.4,3.2,3.5,7,4.4,10.8 c0.8,3.3,1.3,6.6,2,10c0.3,1.4,0.8,2.8,1.6,4c0.9,1.4,1.8,1.9,3.3,1.6c1.5-0.3,2.5-1.1,2.9-2.6c0.5-1.8-0.2-3.5-0.8-5.2 c-0.6-1.4-1.2-2.8-1.8-4.2c-0.2-0.4-0.4-0.9,0-1.4c0.5-0.5,1-0.2,1.5,0c1.8,0.8,3.2,2.2,4.6,3.5c4.1,4.1,7.7,8.5,9.5,14.1 c2.7,8.2,3,16.5,0.1,24.8c-1.1,3.1-2.8,5.9-4.8,8.5c0,0.7-0.7,0.9-1,1.4c-0.9,0.5-1.4,1.3-2.2,1.9c-0.4,0.8-1.2,1.3-1.9,1.7l0,0 c-1.7,1.8-3.8,3-6.1,4c-1,0.4-1.7,0.1-2.4-1c-0.2-0.7,0.1-1.3,0.5-1.8c1.1-1.3,2.3-2.6,3.4-3.9c5.2-5.9,6.5-12.5,3.8-19.8 c-0.6-1.7-1.5-3.3-3-4.5c-0.5-0.2-1-0.5-1.4-0.8c-0.6-0.4-0.2,0.4-0.5,0.3c-0.1,1.3,0.5,2.4,0.8,3.6c0.3,1.1,0.3,2.1-0.3,3.2 c0,0.4-0.4,0.6-0.6,0.9c-2,1.5-4.2,1.7-6.5,0.8c-0.5-0.2-0.9-0.4-1.1-1c-1.6-2.3-1.3-4.8-1.2-7.3c0.1-1.6,0.3-3.3,0.1-4.9 c-0.2-2-1.3-3.5-2.6-4.9c-0.7-0.6-1.3-1.3-2-1.9c-0.8-0.6-1.6-1.1-2.6-1.4c-0.6-0.1-1-0.1-1.4,0.4c0.6,1.4,1.7,2.5,2.1,4 c0.8,3.3-0.3,6-2.1,8.7c-0.6,0.8-1.5,1.2-1.9,2.1c-0.5,0.9-1.4,1.3-2.1,2c-0.7,0.7-1.5,1.3-2.3,1.9c-0.8,0.7-1.4,1.5-2.3,2.1 c-2.2,2.3-3.1,5.1-2.9,8.3c0.2,3.3,0.8,6.6,2.3,9.6c1.6,3,3.9,5.1,7.1,6.3c0.9,0.3,1.3,0.8,1,1.7c-0.4,0.9-1.1,1-1.9,0.7 c-3.6-1.2-7-2.8-10.1-5C11.2,80.1,10,79.5,9.3,78.3z"/>
</svg>