{
  "HOST": "localhost",
  "PORT": "4040",
  "BASE_URL": "http://localhost:4040/",
  "API_URL": "http://api-dev.akly.co/api/",
  "AUTH0_CLIENT_ID" : "vYKPIGvsZuHd75YnbBcDVEsVDcC9tLuB",
  "AUTH0_CONNECTION" : "Akly-Develop",
  "PUBNUB" : {
    "SUBSCRIBE_KEY" : "sub-c-478900be-9f5c-11e6-8eb2-02ee2ddab7fe",
    "PUBLISH_KEY" : "pub-c-83ade9c9-3a81-442c-8e09-8becaff90d5f"
  }
}
