<svg version="1.1" xmlns="http://www.w3.org/2000/svg" xmlns:xlink="http://www.w3.org/1999/xlink" viewBox="0 0 47.6 51.9" style="enable-background:new 0 0 47.6 51.9;" xml:space="preserve">
<style type="text/css">
	.st0{fill:#FFFFFF; opacity:0.8}
</style>
<circle class="st0" cx="23.7" cy="12.4" r="12.4"/>
<path class="st0" d="M24.2,28.1L24.2,28.1c-0.1,0-0.2,0-0.2,0c-0.1,0-0.1,0-0.2,0c-0.1,0-0.1,0-0.2,0c-0.1,0-0.2,0-0.2,0v0 C2.4,28.5,0,41.3,0,45c0,3.7,6.1,6.9,6.1,6.9h17.2h0.8h17.2c0,0,6.1-3.2,6.1-6.9C47.6,41.3,45.2,28.5,24.2,28.1z"/>
</svg>